0.058388 2.230900 136.792000
0.069708 10.722992 37.998000
0.086529 22.957933 93.528000
0.018391 21.482505 88.933000
0.094967 23.089678 63.580000
0.008900 3.363642 64.825000
0.048091 6.483950 76.116000
0.085018 10.058627 66.015000
0.086170 6.493200 59.894000
0.083654 0.514946 7.111000
0.046388 17.366285 43.427000
0.082753 3.062354 54.191000
0.087549 21.060564 70.655000
0.093119 24.333339 67.188000
0.100672 18.248228 34.982000
0.094086 22.108957 14.816000
0.075204 7.029571 0.385000
0.062976 4.882685 23.369000
0.027008 17.766439 76.433000
0.018323 14.756609 87.794000
0.069332 5.522433 49.845000
0.007857 11.806351 22.645000
0.011264 19.888821 158.187000
0.073015 19.595990 77.723000
0.004063 6.553398 146.345000
0.027729 22.729337 149.953000
0.076097 11.907178 92.047000
0.081347 5.844464 119.475000
0.085811 1.398452 113.629000
0.020167 2.352172 51.099000
0.004267 6.894160 69.319000
0.043527 7.489394 107.302000
0.023548 17.660439 128.711000
0.039396 12.513325 80.694000
0.005276 4.957233 45.607000
0.054565 7.699368 141.414000
0.076770 9.722691 159.199000
0.024507 22.485399 26.697000
0.056905 23.549927 13.496000
0.057804 13.087002 144.773000
0.002691 6.009227 46.051000
0.090586 23.485282 7.890000
0.098393 20.947681 100.136000
0.026016 4.998524 66.952000
0.023948 17.301460 77.808000
0.083428 3.776484 61.170000
0.013748 2.951229 144.368000
0.070472 15.565560 107.604000
0.047930 1.306434 133.941000
0.065490 12.513207 148.673000
0.030604 16.194998 104.978000
0.078009 10.460729 67.264000
0.040593 4.236344 154.790000
0.016414 22.878499 27.074000
0.044234 16.144251 125.960000
0.036185 21.315931 19.966000
0.041542 7.874541 43.591000
0.039648 2.906817 106.548000
0.053603 3.662037 147.341000
0.069752 23.179901 3.436000
0.073992 20.112075 95.090000
0.092946 14.194720 1.328000
0.031210 16.002390 4.249000
0.059600 8.920287 29.301000
0.097072 4.822498 21.316000
0.003621 9.881961 35.678000
0.037759 12.578086 115.719000
0.038093 3.853795 4.998000
0.019807 12.382997 141.076000
0.054282 6.786912 66.113000
0.074439 10.841073 49.993000
0.083989 10.964201 10.347000
0.011186 5.493805 103.461000
0.083334 20.453537 130.352000
0.073466 17.929738 77.251000
0.099335 20.652245 153.937000
0.030590 4.918353 157.140000
0.040146 20.955308 130.177000
0.076049 21.947288 31.820000
0.054953 21.787004 65.702000
0.031763 5.118351 42.524000
0.006257 18.733048 144.945000
0.099577 13.763250 113.853000
0.025333 2.223611 79.446000
0.052124 8.431562 145.574000
0.049939 1.468398 16.181000
0.016433 16.434697 3.231000
0.006085 14.213032 41.787000
0.004526 3.316654 127.105000
0.010217 20.214684 1.110000
0.094824 9.328841 47.340000
0.033884 19.715303 3.411000
0.002520 16.501285 87.353000
0.057235 3.182489 17.007000
0.058553 11.459894 97.423000
0.075346 12.135049 22.746000
0.021689 17.667827 146.853000
0.041365 5.914748 33.389000
0.011821 23.869084 62.154000
0.033838 14.830286 148.484000
0.009984 21.674276 153.326000
0.061487 18.156504 132.761000
0.049392 1.360151 24.065000
0.053805 21.636915 30.489000
0.078585 22.835961 107.075000
0.005870 8.543933 83.213000
0.008697 13.287569 135.473000
0.021851 19.338725 147.060000
0.041899 9.064795 6.582000
0.035610 8.085125 123.434000
0.048512 3.138035 132.099000
0.100017 15.429918 64.356000
0.086366 10.714212 14.039000
0.036727 24.098513 146.305000
0.011593 7.292081 19.508000
0.084828 14.335812 127.977000
0.003201 24.235644 153.974000
0.078485 12.285796 115.926000
0.026680 12.031525 33.998000
0.031554 15.370593 23.062000
0.095060 11.210901 58.030000
0.055435 10.590138 43.061000
0.061315 22.849480 84.743000
0.076550 5.137882 104.360000
0.059717 10.909248 92.750000
0.095690 3.256510 71.346000
0.040069 12.768969 111.114000
0.007379 2.585481 51.483000
0.074039 0.949733 71.283000
0.092436 23.306628 62.985000
0.089622 18.937191 39.079000
0.062234 4.513391 91.736000
0.026161 2.480599 47.419000
0.028375 8.975690 150.544000
0.049898 14.554764 12.661000
0.068455 24.195741 95.730000
0.031781 8.642380 96.434000
0.035136 4.135599 159.654000
0.041880 0.893432 106.017000
0.005004 19.397242 57.948000
0.087765 20.319221 118.227000
0.025812 21.969797 146.881000
0.068235 15.477758 150.435000
0.076797 17.688168 67.946000
0.015505 18.437732 62.583000
0.079880 13.554384 82.308000
0.049734 19.030815 139.112000
0.029258 9.047635 78.221000
0.058789 6.567110 134.486000
0.074202 5.925304 159.017000
