25.863398 -1.515680 -0.683465
0.257651 3.082824 0.154988
3.133905 -2.657776 -0.396754
14.737526 2.099041 0.193625
3.991354 1.750553 0.380812
22.297468 -2.231255 -0.313818
-5.790851 0.973371 -0.400997
4.782157 -1.009314 0.588035
-2.885813 -0.434764 1.423027
5.300102 -3.443506 -0.784381
-16.484461 -2.839199 -0.639620
-12.306035 0.315775 -0.237771
-8.738223 -1.568031 1.208855
-3.572318 3.130839 0.476978
-2.397884 0.068930 0.420369
12.531170 -5.224309 -0.369862
-9.709642 1.591559 -0.527711
14.193260 -3.961565 -0.196045
-18.372763 -3.872342 -1.451471
24.069497 -2.405992 -1.060443
-10.317231 -1.884852 -0.660111
15.020593 4.195323 0.561080
17.847186 -3.259082 -0.422834
18.768421 -2.527728 -0.458037
20.849819 -2.047811 -0.042549
-3.384818 1.324782 -0.388195
-1.890835 2.824696 -0.047492
-1.245241 -2.178942 0.192644
2.038092 -4.359607 0.865028
-11.236923 -0.581081 0.147839
-12.357190 -1.676724 0.941907
-0.857420 -3.203879 1.618712
-10.875551 0.378456 0.583896
-5.802674 3.801728 -0.289613
-3.237094 -4.050814 1.230214
14.360582 -4.134739 -0.386093
-2.493238 2.502241 -0.701402
-4.578538 0.445671 0.879442
1.661783 0.704955 -0.520558
-9.181137 2.844810 0.194789
-6.285498 4.477014 0.018780
28.082420 -1.608683 -0.605876
-7.124650 3.804293 0.021557
-14.208205 -0.556379 -0.022717
-13.659088 -0.974382 -0.459708
-3.196881 -1.818715 -0.457588
5.728482 -1.480874 1.790297
2.266609 -0.047931 -0.343560
-9.760174 1.987510 -0.366099
17.886804 -2.715469 0.117656
21.787803 -0.221283 0.429523
1.386971 5.760719 0.464062
-4.713089 0.808249 -0.008184
-5.925359 -3.907195 -0.017719
7.554748 -0.511026 -0.266657
9.548862 -1.960611 -0.540044
-13.983786 -0.925818 -0.323237
-15.944771 -4.560521 -0.345115
-10.461289 0.844066 -0.197818
1.142277 -2.011397 -0.185020
4.883595 -0.835365 0.710693
4.169261 -0.805352 0.856310
-9.388299 -2.261692 -0.229602
-8.307416 -0.618060 -0.264309
19.949565 -3.014822 -0.872004
-5.047415 4.531106 -0.283282
-4.468054 4.410600 -0.234615
-5.568237 -3.390730 -0.118382
19.348271 -2.092719 0.284985
3.224802 4.106235 -0.038223
-0.370586 -0.146748 1.261502
20.716797 -2.670579 -0.164418
-17.960096 -2.658769 -1.026931
10.891967 -0.638058 -0.208665
-17.166825 -3.109085 -1.160885
-2.931926 5.027297 -0.022984
-4.579830 -1.905456 -0.434926
-14.698800 -4.006057 -0.296528
-10.822567 0.001070 0.439342
-5.310334 2.045076 -0.676787
14.617521 0.776556 -0.390727
-12.888475 -2.483202 -0.538402
-11.430279 -2.131150 -0.492652
-0.306946 3.422106 0.070179
6.179731 1.594834 0.926025
2.505124 1.783278 0.676400
-0.816637 0.873394 0.218439
-12.669751 -3.123039 -0.471826
-10.172079 1.401457 -0.641677
3.585726 5.085922 0.370839
-1.010933 1.182179 -0.507066
0.493170 4.015085 -0.233349
7.911342 2.957501 -0.381341
12.545928 -0.444520 1.471635
3.730959 1.347175 -0.532619
-2.268753 1.350882 -0.721706
-5.233934 2.786405 -0.333153
-11.830060 0.469850 -0.569660
4.846387 1.683901 -0.356084
-17.722076 -3.654367 -1.336439
-13.160816 -2.588411 0.136330
-0.103416 2.427839 -0.208354
-7.098710 -0.486984 0.564168
5.732127 0.601298 0.979131
0.006648 -1.040940 -0.647342
-3.038280 0.613492 0.550690
18.391718 -4.102923 -0.395277
4.900035 5.749699 0.307588
0.748407 2.023034 -0.562736
0.837209 3.453253 0.162245
17.307963 -0.389716 0.987022
-13.139182 -4.985734 0.070557
-2.897180 4.071099 -0.474867
1.379150 4.428211 0.458418
-4.335952 3.143074 -0.635087
14.539636 -2.485503 0.750795
14.557963 1.384304 -0.332469
4.481519 2.651830 0.357435
-0.420721 -2.160351 0.588252
-4.806202 4.390954 0.346051
9.631521 -3.559590 0.404630
8.432509 3.497217 0.213846
26.680816 1.301798 0.280940
8.952701 3.474715 -0.070990
-9.339562 0.601676 -0.704071
1.240855 2.439955 -0.784091
-7.152616 0.112175 0.017663
-1.659019 0.600329 0.483409
-6.377653 3.792493 0.144408
-1.410153 1.407683 0.823002
10.287791 -1.501874 -0.865991
18.112635 2.733770 0.007429
-9.368263 1.724240 0.384851
-1.907319 1.571979 -0.565415
1.950403 3.431908 0.800357
3.198165 -2.495826 1.345924
5.336904 -0.392557 -1.010162
8.199201 0.515488 0.224559
-5.263885 0.574828 0.008959
-2.570879 3.816495 -0.339479
-4.584814 4.108028 -0.337132
-9.461636 -1.573246 1.184970
-0.284381 -3.086680 -0.237065
8.866250 0.950249 -1.054578
26.066584 -1.050532 -0.558927
1.005685 1.367309 0.611644
9.770133 -5.000800 0.038629
-4.551066 -1.366978 0.107263
5.975345 -0.001340 0.242629
-6.525540 2.486262 -0.082248
5.221243 2.459281 -0.176860
-17.074922 -2.836071 -0.967880
-11.655051 -1.601899 -0.426098
-1.898340 -1.317774 -0.479559
-2.469525 2.024999 0.859298
-16.605278 -3.292216 -0.850484
-12.734029 -1.817107 0.786309
-10.474190 -2.187262 -0.638605
-11.933908 -2.252867 0.263482
13.322140 -1.218100 -1.044134
-14.481490 -0.160362 0.015314
4.725270 3.192806 0.636509
7.572525 1.983852 -0.168704
2.866687 2.341773 0.046745
-2.137028 -1.196907 0.920183
11.404532 0.419546 -0.548179
-4.838526 -0.148923 0.842382
1.305201 0.203936 -0.174332
1.068785 -6.115212 0.020844
-6.864201 -1.822539 1.059482
11.976845 1.246388 0.469949
-18.604575 -3.212849 -1.210182
-5.877542 3.161520 -0.682491
15.462017 -2.887569 0.412960
-2.662641 -0.273175 -0.255497
-2.257970 4.179553 -0.008943
-7.570455 0.889743 0.629859
8.328517 -3.045267 0.869421
1.113527 5.677463 0.251625
6.884287 0.994233 -0.720741
-5.621470 3.687232 -0.125982
4.019246 1.031693 -0.426006
-4.722018 1.810720 -0.437850
28.711738 -0.265381 -0.374880
-8.447144 1.354103 -0.062704
9.527857 -1.469966 -0.466660
2.672946 6.222891 0.470402
-7.246232 -1.339242 0.140926
-12.461257 0.514598 0.136145
-4.000082 2.595665 0.405737
-8.870717 0.220359 -0.696033
6.785069 2.927148 0.382609
4.038359 0.500722 1.001185
-6.296622 1.887276 -0.863180
-3.223078 4.808035 0.181336
-7.949462 -2.400537 0.015404
-16.081092 -3.170747 -0.121459
8.499017 0.294366 0.129822
14.361955 -0.144773 -0.647528
3.333349 -1.057795 0.008055
-3.303767 5.208413 0.128387
-7.138908 2.431795 0.154326
1.819019 4.279648 -0.094957
-6.196934 3.454748 0.349811
-3.972175 2.084789 -0.272030
31.302633 -1.010967 -1.179260
-7.948666 0.896472 -0.427761
-6.989102 -1.071352 0.384522
-6.419761 4.113858 0.198013
-2.839466 1.428752 -0.146522
-11.528256 1.540928 0.121954
-12.660508 -0.122093 -0.444445
21.750107 -1.993763 -0.386279
8.030258 -0.365459 0.482776
-2.276008 2.016211 -0.569211
-10.606589 0.562612 -0.322871
0.801588 -2.202991 1.677278
-4.916221 -5.219672 0.428745
-3.491961 1.247780 0.678437
-15.559086 -2.046175 -0.748620
-15.592255 -0.828389 -0.250901
13.685619 -0.218555 -0.452257
6.164156 4.187582 0.486159
-6.592368 -2.167898 0.875327
-9.214289 0.451746 -0.484704
5.890226 -2.118129 1.753782
-3.989221 1.827794 -0.257328
-6.362376 -0.225413 0.347857
2.258488 -3.271573 1.329559
-10.363756 -2.814389 -0.177588
-5.957447 0.618052 -0.333556
15.285082 -0.860768 -1.133788
-12.616046 -2.267145 1.282610
3.838716 2.096011 0.137849
-14.171021 -1.621485 0.663350
17.621471 -5.111471 -1.056588
-10.909014 0.858046 -0.686184
24.751615 -2.956893 -0.793336
-12.330121 -0.510233 0.051718
-4.688227 1.200582 0.044201
1.161838 -4.518163 0.619704
34.327268 0.695268 -0.562442
3.924767 1.650130 0.151519
-14.328129 -2.165876 -0.369712
-9.271013 -3.262173 0.303087
-14.983684 -0.757059 -0.592869
-13.707785 -0.649705 -0.924921
-10.056613 0.800060 -0.129051
-0.614950 3.059898 -0.467529
-6.566096 -5.152232 0.312372
-0.232652 2.416803 0.623820
-7.782523 -3.424262 0.442323
-3.711319 -2.009240 -0.297594
-15.483319 -1.442503 -0.708556
19.998721 -2.960984 -0.757659
-5.605983 1.616181 0.503482
-6.387849 -1.694886 1.160990
-4.886997 -1.513954 -0.462920
-1.004535 2.901938 -0.599214
22.139045 -2.545113 -0.186366
19.601472 -2.794940 0.076198
-6.851405 -2.532179 -0.393834
6.009980 2.338267 0.199889
-1.642909 -3.430912 -0.233950
-13.671246 0.520848 -0.084115
-7.475678 2.394885 -0.692004
-5.806786 -0.022697 -0.116167
8.674507 1.311640 -1.000637
-4.013446 1.569267 -0.351738
-11.590881 -0.889449 0.624646
3.403375 2.759193 0.161133
19.830921 2.259601 -0.387291
-11.463401 -3.227202 -0.240943
-17.403226 -2.582153 -1.110178
-15.338220 -2.204553 -0.272909
18.945333 -2.862897 0.247691
1.932360 2.393028 0.664948
25.471288 -2.399881 -0.500563
1.065643 0.426044 -0.325149
7.035742 0.940134 -0.799530
10.481018 -3.006678 0.708240
-16.416822 -1.901043 -0.407511
2.502710 -1.085146 0.915603
-10.280586 -0.061785 0.129017
-3.810681 -0.566022 0.395153
0.933637 -0.795373 0.491483
-3.736324 -0.154660 0.568040
-2.062135 -1.226268 -0.383820
-4.218593 2.356966 -0.796655
-12.082783 -0.133072 -0.369693
2.480499 0.610711 0.043368
-8.539638 -4.882773 0.448204
-1.116383 -1.885186 0.542723
4.665859 2.679899 0.322851
-2.118508 2.200363 -0.352245
-4.026632 3.999430 -0.439254
-5.642131 1.034181 0.047881
-3.798959 0.631311 -0.165623
-8.066932 0.793656 -0.578630
5.928583 -4.080486 0.507915
-17.400461 -2.099890 -1.037750
11.289943 -4.063706 -0.208897
-7.380960 -2.025600 1.005680
-5.546306 2.377884 -0.397054
0.686925 0.299274 1.145400
-5.663366 0.468082 0.786041
6.051503 2.123639 -0.274888
9.574093 -3.992620 0.745496
-0.673205 -0.491791 -0.363769
9.657443 -0.706974 0.087285
19.260927 2.650433 -0.111888
12.897434 2.086018 0.329210
1.900312 -0.554414 0.657445
-10.511024 0.127705 0.193980
-7.344883 -1.905071 2.059168
-9.718577 0.524429 -0.884527
3.995948 2.486315 0.183715
-14.481408 -2.432243 -0.491240
7.844658 4.197298 0.179179
19.128818 3.650194 0.048091
-8.913175 3.483140 0.072801
7.525746 -2.267668 -0.636131
-0.967845 -2.619940 1.817225
-7.355935 -3.963230 0.947008
-2.148312 3.192931 -0.106964
-7.553178 -2.802842 -0.252408
-5.724332 3.964032 -0.036382
-8.757473 -0.991342 0.558567
-1.144450 3.468404 -0.238600
-2.753558 -0.305803 1.291211
2.239750 5.817705 0.388580
-9.088777 -3.918894 0.008955
-8.934430 -0.072950 0.167884
17.084500 -2.250054 -0.054749
4.448702 0.250717 1.033285
-7.178456 1.645366 0.028270
14.355917 -2.364558 0.344613
-4.299656 -1.248893 1.170066
0.314729 0.600589 -0.434412
-15.529748 -1.970361 -0.591686
-13.527043 -3.902480 -0.181852
2.255894 -2.720879 1.715688
11.291464 -2.251323 1.369482
-16.482139 -1.957818 -1.066519
-9.442678 -3.236637 1.396590
14.244719 -3.656003 0.172692
9.743120 1.828238 0.557333
-2.724690 2.832329 0.429683
-5.385501 3.412516 -0.446181
-1.486765 3.084941 0.458770
-7.373471 3.118728 -0.363802
7.167028 -0.808256 -0.435792
11.288139 -1.290178 -0.787636
-6.300320 -0.172917 -0.224772
-11.011545 -3.270829 -1.186429
-15.046100 -1.185326 -0.116121
-8.568584 -0.024826 0.762372
22.450074 -1.521033 0.004556
21.950195 -2.004895 -0.825649
-6.657305 0.358617 -0.463926
-1.985276 3.775100 0.506566
-13.768372 -0.685772 0.076063
0.189635 0.201852 -0.404337
-14.098051 -1.080897 0.031557
-14.944692 -4.186070 -0.331555
1.206826 4.765115 0.103824
3.152957 3.705116 -0.140251
22.479779 -2.319624 -0.729410
19.306913 -1.671841 0.089713
-15.220146 -1.418085 -0.309582
-6.321480 -1.443899 -0.164275
27.882450 -1.406997 -0.686524
-0.613453 -0.490865 -0.296432
-4.171890 0.768377 0.937527
-12.358375 -1.319736 0.003315
15.454553 1.931196 0.195904
-15.009627 -2.773461 -0.684638
-2.623009 -0.557640 -0.166712
-5.344143 2.640960 -0.883121
18.789925 2.167702 -0.145018
0.543710 0.349144 1.167595
9.261456 -0.378389 -0.511808
-15.890893 -3.623682 -0.179696
-6.854175 1.434660 -0.804515
20.795320 -2.495529 -0.006311
9.329935 0.488400 0.212946
14.198129 1.163803 -0.112816
-2.571471 1.644040 -0.321263
-14.391532 -0.926677 -0.521940
32.691902 0.320742 -0.648571
-10.309451 0.311882 0.243206
-3.227990 -1.931533 0.427451
-11.515460 -0.453283 -0.538130
-11.068775 -2.853679 -0.120008
-10.869605 0.210639 0.299879
-8.477663 -0.062661 0.222657
21.117574 -0.556360 0.547691
-0.344774 0.851566 0.089406
-4.411814 -3.198513 1.675012
5.842755 0.859897 0.914293
-14.617511 -2.422187 0.007293
19.870105 -2.884503 -0.271389
-3.186645 4.485071 -0.136328
-11.215477 0.435569 0.085541
-15.786600 -0.300400 -0.253531
-9.167375 1.819969 0.113441
-10.135310 1.711401 0.126389
12.986557 1.949894 -0.147908
-8.965044 3.171027 0.124628
14.355699 -1.549332 0.670109
-12.843815 -0.772153 -0.702394
8.800115 0.346666 -0.051112
23.746508 -0.764723 -0.533559
-7.649343 2.336004 0.194677
7.865346 -2.294726 1.190809
0.279071 3.845651 0.153393
29.565790 -1.219438 -0.589596
0.867100 -3.984928 0.854739
2.761690 -1.187831 0.814583
7.426198 2.392343 -0.538842
4.950277 0.806950 1.110156
-11.106182 -0.427823 -0.663985
10.176009 2.144711 -0.796932
-5.253882 0.889027 0.171424
-16.107087 -1.915463 -0.528140
10.772334 -2.637328 1.200257
13.421871 2.143329 0.041008
1.511356 -2.856513 1.409331
7.410069 1.717481 -0.854229
-8.532520 3.272738 -0.199412
-1.681049 3.292983 0.506835
-10.310793 -0.080733 -0.311585
-11.107628 -1.443300 1.235617
3.762468 -2.420987 1.778875
-4.575234 -2.305979 -0.317190
14.650646 1.829161 0.356234
-0.385525 2.571652 -0.264737
3.769000 3.153462 0.356698
-6.122775 3.076925 -0.568052
-8.347350 -0.086163 -0.009507
8.444473 -0.753792 -0.689518
-0.612441 4.382992 -0.076150
1.000943 -3.702763 -0.437702
-2.748343 1.457825 0.960898
19.330855 -2.242879 -0.171166
-4.804866 -2.855405 0.506316
19.456396 1.202749 -0.739481
-10.259737 1.276363 -0.806441
-8.933695 -3.930449 -0.094268
5.603679 4.157501 0.617472
9.384333 0.716430 0.284461
11.694629 0.728106 0.163230
5.848181 -3.440534 0.742432
3.923439 -4.240101 0.687232
12.239594 -3.645423 -0.008122
-12.412599 -0.765993 -0.397504
11.857199 4.877181 0.207883
-7.817766 -1.591112 0.009444
-2.072921 3.086250 -0.243556
-9.578873 -1.644193 0.935371
-12.769875 -2.267458 0.806306
-14.169284 -2.871242 0.410403
9.195483 1.104777 0.571140
-8.255141 -2.824493 0.700259
7.207794 2.721442 -0.103980
-4.209430 1.659442 -0.133097
-6.302409 3.413454 -0.231358
3.401192 -1.574682 -0.088580
-8.076764 -1.772655 -0.039486
8.160957 1.319109 0.725630
-3.255623 3.465079 0.471866
-7.506607 0.249548 0.278302
-1.465225 0.536333 0.554010
4.898683 -2.119618 -0.606961
4.140140 1.185945 -0.085230
-7.834179 -1.027913 -0.536952
7.522930 4.155683 0.110325
5.340351 -1.500593 0.205984
-10.147660 -0.395821 -0.209900
4.229617 -1.048998 0.527122
-8.344408 -0.645108 -0.386269
-14.664750 -2.781834 -0.093779
16.545449 1.585970 -0.640207
-7.214778 2.116939 -0.405882
-13.767642 -0.629061 -0.668506
-14.820412 -0.762000 -0.396735
-12.997419 -2.247222 -0.476762
-5.567696 0.432855 -0.211173
1.000123 5.334344 0.333214
0.148482 -1.067774 0.543939
-1.154327 0.683919 0.354930
-9.703860 2.142760 -0.545900
27.230630 0.166941 -0.074491
-8.200527 2.902075 0.316773
2.609873 0.787348 -0.658349
5.003651 2.269936 -0.271601
-9.458585 1.698439 -0.275293
-0.781947 -4.512159 0.780213
5.182155 1.361395 -0.268579
0.782662 5.737368 0.303158
29.003169 -0.847741 -0.496745
-0.413304 1.520045 0.149106
4.101812 0.358275 0.720705
-5.650910 2.198057 0.489320
-16.481372 -1.536560 -0.571508
-5.581041 3.642394 0.162592
-6.480133 3.408008 0.353854
20.796378 -3.755504 -0.669769
24.007648 -0.141902 -0.157008
-7.028162 4.541132 0.161193
-7.972913 1.370021 -0.182131
-12.257648 -3.522593 0.274609
-0.072158 3.358570 0.255719
-15.152690 -4.163895 -0.788994
10.267220 -0.802528 -0.594554
12.965208 -5.101818 -0.225157
-18.947326 -3.715337 -1.352035
-11.463616 0.377180 -0.356652
4.582111 0.274692 -0.836629
-2.062021 -1.531788 1.046054
19.737778 1.639182 -0.675046
18.868615 1.604432 -0.446625
6.244323 1.620304 -0.111461
-4.099367 0.100893 0.649959
-5.340575 3.683583 -0.410594
-14.782628 -0.197992 -0.371145
1.793238 -1.182026 0.444117
-5.509616 4.462167 0.249858
-4.531007 4.491630 -0.099333
-9.536505 -0.000762 0.843522
13.604336 1.670450 -0.126483
-1.679656 -0.040800 -0.112467
22.476480 -2.966222 -0.441309
-1.490310 1.701559 0.616574
18.249182 2.152811 -0.440814
-3.343702 2.717879 0.220155
31.976064 -2.329115 -1.666761
-12.338300 0.495455 0.069654
11.102578 0.771518 0.318662
-12.778269 -0.533808 -0.657585
-9.054136 1.446226 0.013512
-10.272426 -0.970994 0.713965
-12.714687 -1.385524 -0.153372
-5.966461 0.553029 -0.590543
-8.126109 0.778607 0.621391
-3.544018 5.731419 0.181620
6.506048 1.575117 1.049424
21.536571 -1.160696 -0.157321
-2.962653 2.547446 -0.081090
25.985680 -2.209677 -1.105769
3.074367 -0.037019 -0.529338
-7.576470 -4.137511 0.938570
-8.832720 1.359601 0.071143
-10.142999 1.465590 -0.408396
2.304834 3.237193 0.580139
23.834416 -1.248473 -0.256890
-5.094284 2.799291 -0.163289
-4.832877 -2.040328 -0.237633
12.298888 -4.052151 0.430420
-3.777962 0.198555 0.577618
0.670340 3.845971 -0.064567
-17.329434 -2.129508 -0.936246
-5.777901 1.379739 -0.759819
25.518188 -3.445791 -1.353487
-1.581493 2.539201 -0.696222
-14.639404 -1.681388 -0.849494
16.451487 -3.372044 -0.227888
-9.649022 0.766751 -0.046888
-6.763065 -0.342254 -0.366286
17.939779 -3.066065 -0.724056
13.653847 1.553359 -0.005050
14.984401 -0.622381 1.255967
1.642567 2.511516 -0.718578
11.452667 -0.720862 -0.406623
-8.978458 0.722200 0.291629
-6.556294 1.906759 0.585210
13.731200 1.117711 -0.166311
14.138457 -0.333622 -0.778341
-9.438029 -0.065336 0.381563
2.284162 1.101918 0.333585
20.483472 -2.889659 -0.163877
-14.393652 -1.879869 -0.850021
-3.477195 2.518934 0.285389
1.027701 1.686315 0.048904
17.180453 -3.799982 -0.048418
-17.289919 -2.146240 -1.055213
18.327380 2.234936 -0.330899
-3.635355 6.365880 0.202037
-10.598592 1.043029 -0.839960
12.474188 -2.056917 -1.181546
5.193683 3.702407 0.416650
-14.592115 -3.380468 -0.511890
-9.201589 2.035819 0.115815
6.849550 0.885398 0.554208
-10.530290 0.804275 -0.370738
-0.592315 2.445878 -0.366648
10.473627 -2.346483 0.741563
-14.849198 -1.891135 -0.986298
15.207361 -4.423249 -0.137124
-4.054290 -3.201872 -0.173592
17.638115 2.561091 -0.273879
-0.625488 1.864533 -0.789606
-7.788660 -3.210551 1.563160
-7.234794 -1.096578 0.150466
-16.572354 -2.079189 -0.907908
-1.487902 -2.332959 1.956401
-10.425192 -1.709912 -0.329722
24.785947 -2.419893 -1.201850
7.978468 -3.650934 0.252897
-0.344172 1.869032 0.698026
5.212971 1.080115 1.003566
-13.042546 -3.551367 0.127130
1.418208 -2.842354 -0.120286
14.807695 0.713678 -0.788498
16.558211 2.715497 0.190300
9.059751 -5.188278 0.146571
-12.170805 -1.134465 -0.774686
-6.551666 -1.093551 1.452451
13.690532 2.431476 0.255353
-3.771841 0.615710 -0.687737
-12.919832 -2.134426 0.163043
-9.893108 0.123408 -0.806689
20.298150 -2.043301 0.087510
-2.483462 0.106102 -0.083361
-0.703723 -1.572695 0.580826
3.285908 -0.361362 0.624060
-11.452928 1.896234 -0.045323
1.707990 4.646184 0.296964
-7.886815 0.846141 0.541043
-7.308557 -4.041141 0.898970
-16.966395 -2.437387 -1.154440
12.344773 1.648493 0.432626
-7.193065 -4.192145 -0.081831
-12.051087 -2.621662 -0.216441
-2.377777 3.607323 -0.433999
1.756758 -0.334855 -0.452152
6.972108 0.634172 0.897102
1.069959 -3.789809 0.993108
-0.113860 1.867654 -0.782088
-4.837652 -1.230304 -0.258762
-13.642058 -0.221646 -0.452473
-6.258792 2.402384 0.467644
-4.529459 4.406669 -0.341034
-0.371649 4.654867 0.223894
15.838911 -2.300767 0.492793
7.204699 3.338994 0.156556
14.962309 -2.213071 0.118252
-11.785060 -2.217898 -0.416911
-8.157299 1.567588 0.029666
1.127289 -1.653784 1.900251
